%FSLAX25Y25*%
%MOIN*%
G70*
G01*
G75*
G04 Layer_Physical_Order=6*
G04 Layer_Color=16711680*
%ADD10O,0.09843X0.02756*%
%ADD11R,0.04331X0.10236*%
%ADD12R,0.04331X0.06693*%
%ADD13R,0.06693X0.04331*%
%ADD14C,0.01000*%
%ADD15C,0.01200*%
%ADD16C,0.05906*%
%ADD17R,0.05906X0.05906*%
%ADD18R,0.05906X0.05906*%
%ADD19C,0.07874*%
%ADD20C,0.23622*%
%ADD21C,0.05000*%
%ADD22C,0.04000*%
%ADD23C,0.07543*%
G04:AMPARAMS|DCode=24|XSize=95.433mil|YSize=95.433mil|CornerRadius=0mil|HoleSize=0mil|Usage=FLASHONLY|Rotation=0.000|XOffset=0mil|YOffset=0mil|HoleType=Round|Shape=Relief|Width=10mil|Gap=10mil|Entries=4|*
%AMTHD24*
7,0,0,0.09543,0.07543,0.01000,45*
%
%ADD24THD24*%
%ADD25C,0.08921*%
%ADD26C,0.15811*%
%ADD27C,0.06800*%
G04:AMPARAMS|DCode=28|XSize=88mil|YSize=88mil|CornerRadius=0mil|HoleSize=0mil|Usage=FLASHONLY|Rotation=0.000|XOffset=0mil|YOffset=0mil|HoleType=Round|Shape=Relief|Width=10mil|Gap=10mil|Entries=4|*
%AMTHD28*
7,0,0,0.08800,0.06800,0.01000,45*
%
%ADD28THD28*%
D14*
X472500Y570000D02*
X482500Y580000D01*
X230000Y570000D02*
X472500D01*
Y585000D02*
X482500Y595000D01*
X342500Y585000D02*
X472500D01*
X337500Y580000D02*
X342500Y585000D01*
X349000Y384000D02*
X356000D01*
X346000Y381000D02*
X349000Y384000D01*
X229874Y381000D02*
X346000D01*
X360000Y380000D02*
X482500D01*
X356000Y384000D02*
X360000Y380000D01*
X742500Y617500D02*
Y677500D01*
X712500Y707500D02*
X742500Y677500D01*
X494343Y707500D02*
X712500D01*
X740000Y610000D02*
Y675000D01*
X710000Y705000D02*
X740000Y675000D01*
X494672Y705000D02*
X710000D01*
X737500Y602500D02*
Y672500D01*
X707500Y702500D02*
X737500Y672500D01*
X495000Y702500D02*
X707500D01*
X735000Y595000D02*
Y670000D01*
X705000Y700000D02*
X735000Y670000D01*
X495000Y700000D02*
X705000D01*
X735000Y595000D02*
X752500Y577500D01*
X742500Y617500D02*
X752500Y607500D01*
X740000Y610000D02*
X752500Y597500D01*
X737500Y602500D02*
X752500Y587500D01*
X242500Y607500D02*
X423472D01*
X474315Y658343D01*
Y659315D02*
X488750Y673750D01*
X474315Y658343D02*
Y659315D01*
X487500Y675000D02*
X488750Y673750D01*
X365000Y340000D02*
X382500Y322500D01*
X255000Y340000D02*
X365000D01*
X207047Y387953D02*
X255000Y340000D01*
X207047Y387953D02*
Y682047D01*
X230000Y560000D02*
X470000D01*
X227500Y562500D02*
X230000Y560000D01*
X492843Y706000D02*
X494343Y707500D01*
X492515Y706000D02*
X492843D01*
X419015Y632500D02*
X492515Y706000D01*
X361203Y632500D02*
X419015D01*
X493672Y704000D02*
X494672Y705000D01*
X493343Y704000D02*
X493672D01*
X419343Y630000D02*
X493343Y704000D01*
X378703Y630000D02*
X419343D01*
X494500Y702000D02*
X495000Y702500D01*
X494172Y702000D02*
X494500D01*
X412719Y620547D02*
X494172Y702000D01*
X395547Y620547D02*
X412719D01*
X410000Y615000D02*
X495000Y700000D01*
X255583Y372500D02*
X482500D01*
X253083Y370000D02*
X255583Y372500D01*
X238046Y370000D02*
X253083D01*
X209047Y398999D02*
X238046Y370000D01*
X217500Y410000D02*
Y412500D01*
X213047Y405547D02*
X217500Y410000D01*
X213047Y400656D02*
Y405547D01*
X232500Y397500D02*
X235000Y400000D01*
X222500Y397500D02*
X232500D01*
X217500Y402500D02*
X222500Y397500D01*
X482500Y565000D02*
X485000D01*
X355000Y626297D02*
X361203Y632500D01*
X355000Y620000D02*
Y626297D01*
X350000Y615000D02*
X355000Y620000D01*
X227500Y622500D02*
X242500Y607500D01*
X235000Y605000D02*
X430000D01*
X227500Y612500D02*
X235000Y605000D01*
X677500Y635000D02*
Y670000D01*
X670000Y635000D02*
Y680000D01*
X685000Y635000D02*
Y660000D01*
X227500Y502500D02*
X235000Y510000D01*
X227500Y492500D02*
X240000Y505000D01*
X227500Y482500D02*
X245000Y500000D01*
X490000Y375000D02*
X490000Y375000D01*
X490000Y365000D02*
X490000Y365000D01*
X273157Y392500D02*
X482500D01*
X271657Y391000D02*
X273157Y392500D01*
X552500Y355000D02*
X553750D01*
X427500Y682500D02*
X430000Y680000D01*
X670000Y450000D02*
Y485000D01*
X677500Y460000D02*
Y485000D01*
X685000Y470000D02*
Y485000D01*
X500000Y575000D02*
X500000Y575000D01*
X235000Y470000D02*
X430000D01*
X317146Y437854D02*
X317500Y438209D01*
X637500Y615000D02*
X647500D01*
X742500Y547500D02*
Y575000D01*
X652500Y610000D02*
X707500D01*
X742500Y575000D01*
Y547500D02*
X752500Y537500D01*
X647500Y615000D02*
X652500Y610000D01*
X340000Y615000D02*
X350000D01*
X375547Y620547D02*
Y626844D01*
X370000Y615000D02*
X375547Y620547D01*
X360000Y615000D02*
X370000D01*
X390000D02*
X395547Y620547D01*
X380000Y615000D02*
X390000D01*
X400000D02*
X410000D01*
X375547Y626844D02*
X378703Y630000D01*
X419665Y450000D02*
X429665Y460000D01*
X227500Y452500D02*
X230000Y450000D01*
X419665D01*
X227500Y462500D02*
X235000Y470000D01*
X227500Y472500D02*
X422500D01*
X430000Y480000D01*
X470000Y560000D02*
X482500Y572500D01*
X227500D02*
X230000Y570000D01*
X227500Y592500D02*
X470000D01*
X482500Y605000D01*
X245000Y650000D02*
X430000D01*
X429000Y661000D02*
X430000Y660000D01*
X232500Y637500D02*
X245000Y650000D01*
X230000Y667500D02*
X245000Y682500D01*
X427500D01*
X232500Y657500D02*
X245000Y670000D01*
X430000D01*
X246000Y661000D02*
X429000D01*
X235000Y400000D02*
X482500D01*
X227500Y582500D02*
X230000Y580000D01*
X337500D01*
X430000Y605000D02*
X480000Y655000D01*
X227500Y602500D02*
X435000D01*
X480000Y647500D01*
X222703Y391000D02*
X271657D01*
X217500Y632500D02*
X222500Y637500D01*
X232500D01*
X217500Y652500D02*
X222500Y657500D01*
X232500D01*
Y647500D02*
X246000Y661000D01*
X217500Y642500D02*
X222500Y647500D01*
X232500D01*
X222500Y687500D02*
X227500Y692500D01*
X212500Y687500D02*
X222500D01*
X213047Y400656D02*
X222703Y391000D01*
X211047Y399827D02*
X229874Y381000D01*
X209047Y398999D02*
Y424047D01*
X217500Y432500D01*
X211047Y399827D02*
Y416047D01*
X217500Y422500D01*
Y662500D02*
X222500Y667500D01*
X230000D01*
X207047Y682047D02*
X212500Y687500D01*
X382500Y322500D02*
X385000D01*
D15*
X485000Y682500D02*
X487500D01*
X412500Y610000D02*
X485000Y682500D01*
X250000Y610000D02*
X412500D01*
X487017Y482500D02*
X487500D01*
X474415Y459415D02*
X487500Y472500D01*
X227500Y632500D02*
X250000Y610000D01*
X752500Y465000D02*
Y467500D01*
X440336Y402836D02*
X487500Y450000D01*
X435036Y405036D02*
X487500Y457500D01*
X227500Y412500D02*
X234964Y405036D01*
X423613Y407500D02*
X474415Y458302D01*
X227500Y422500D02*
X242500Y407500D01*
X227500Y432500D02*
X250000Y410000D01*
X750000Y500000D02*
X752500Y497500D01*
X474415Y458302D02*
Y459415D01*
X466215Y461698D02*
X487017Y482500D01*
X499202Y500000D02*
X750000D01*
X503590Y507500D02*
X752500D01*
X425032Y432053D02*
X510479Y517500D01*
X752500D01*
X517368Y527500D02*
X752500D01*
X424868Y435000D02*
X517368Y527500D01*
X466215Y461215D02*
Y461698D01*
X355000Y420000D02*
Y430000D01*
X360000Y435000D01*
X370000Y415000D02*
X375000Y420000D01*
X234964Y405036D02*
X435036D01*
X242500Y407500D02*
X423613D01*
X250000Y410000D02*
X415000D01*
X350000Y415000D02*
X355000Y420000D01*
X340000Y415000D02*
X350000D01*
X400000D02*
X410000D01*
X360000D02*
X370000D01*
X640000D02*
X650000D01*
X620000D02*
X630000D01*
X650000D02*
X710000D01*
X752500Y457500D01*
X600000Y415000D02*
X610000D01*
X630000D02*
X635000Y420000D01*
X610000Y415000D02*
X615447Y420447D01*
X631886D01*
X635447Y424009D01*
Y426886D01*
X635000Y420000D02*
X707500D01*
X752500Y465000D01*
X580000Y415000D02*
X590000D01*
X635447Y426886D02*
X638861Y430300D01*
X590000Y415000D02*
X595447Y420447D01*
X601886D01*
X604553Y423114D01*
Y425991D01*
X611061Y432500D01*
X698613D01*
X724415Y458302D01*
Y459415D01*
X638861Y430300D02*
X705300D01*
X750000Y475000D01*
X724415Y459415D02*
X750000Y485000D01*
X577500Y615000D02*
X587500D01*
X597500D02*
X607500D01*
X737500Y547500D02*
Y572500D01*
X635000Y607500D02*
X702500D01*
X737500Y572500D01*
X627500Y615000D02*
X635000Y607500D01*
X732500Y557500D02*
Y570000D01*
X617500Y605000D02*
X697500D01*
X732500Y570000D01*
X607500Y615000D02*
X617500Y605000D01*
X600000Y602500D02*
X692500D01*
X587500Y615000D02*
X600000Y602500D01*
X692500D02*
X727500Y567500D01*
X617500Y615000D02*
X627500D01*
X232500Y447500D02*
X427500D01*
X430000Y450000D01*
X227500Y442500D02*
X232500Y447500D01*
X410000Y415000D02*
X414202D01*
X415000Y410000D02*
X466215Y461215D01*
X414202Y415000D02*
X499202Y500000D01*
X416090Y420000D02*
X503590Y507500D01*
X360000Y435000D02*
X424868D01*
X375000Y420000D02*
Y427500D01*
X379553Y432053D01*
X425032D01*
X380000Y415000D02*
X390000D01*
X395000Y420000D01*
X416090D01*
X227500Y402500D02*
X227836Y402836D01*
X440336D01*
D16*
X217500Y642500D02*
D03*
X227500D02*
D03*
X217500Y632500D02*
D03*
X227500D02*
D03*
X217500Y622500D02*
D03*
X227500D02*
D03*
X217500Y612500D02*
D03*
X227500D02*
D03*
X217500Y602500D02*
D03*
X227500D02*
D03*
X217500Y592500D02*
D03*
X227500D02*
D03*
X217500Y582500D02*
D03*
X227500D02*
D03*
X217500Y572500D02*
D03*
X227500D02*
D03*
X217500Y562500D02*
D03*
X227500D02*
D03*
X217500Y552500D02*
D03*
X227500D02*
D03*
X217500Y542500D02*
D03*
X227500D02*
D03*
X217500Y532500D02*
D03*
X227500D02*
D03*
X217500Y522500D02*
D03*
X227500D02*
D03*
X217500Y512500D02*
D03*
X227500D02*
D03*
X217500Y502500D02*
D03*
X227500D02*
D03*
X217500Y492500D02*
D03*
X227500D02*
D03*
X217500Y482500D02*
D03*
X227500D02*
D03*
X217500Y472500D02*
D03*
X227500D02*
D03*
X217500Y462500D02*
D03*
X227500D02*
D03*
X217500Y452500D02*
D03*
X227500D02*
D03*
X217500Y442500D02*
D03*
X227500D02*
D03*
X217500Y432500D02*
D03*
X227500D02*
D03*
X217500Y422500D02*
D03*
X227500D02*
D03*
X217500Y412500D02*
D03*
X227500D02*
D03*
X217500Y402500D02*
D03*
Y692500D02*
D03*
X227500D02*
D03*
X217500Y682500D02*
D03*
X227500D02*
D03*
X217500Y672500D02*
D03*
X227500D02*
D03*
X217500Y662500D02*
D03*
X227500D02*
D03*
X217500Y652500D02*
D03*
X227500D02*
D03*
X415000Y332500D02*
D03*
Y322500D02*
D03*
X405000Y332500D02*
D03*
Y322500D02*
D03*
X395000Y332500D02*
D03*
Y322500D02*
D03*
X385000Y332500D02*
D03*
X305000D02*
D03*
Y322500D02*
D03*
X295000Y332500D02*
D03*
Y322500D02*
D03*
X285000Y332500D02*
D03*
Y322500D02*
D03*
X275000Y332500D02*
D03*
X717500Y332815D02*
D03*
Y322815D02*
D03*
X707500Y332815D02*
D03*
Y322815D02*
D03*
X697500Y332815D02*
D03*
Y322815D02*
D03*
X687500Y332815D02*
D03*
X752500Y547500D02*
D03*
Y537500D02*
D03*
Y557500D02*
D03*
Y577500D02*
D03*
Y567500D02*
D03*
Y607500D02*
D03*
Y617500D02*
D03*
Y467500D02*
D03*
Y487500D02*
D03*
Y477500D02*
D03*
Y457500D02*
D03*
Y527500D02*
D03*
Y597500D02*
D03*
Y587500D02*
D03*
Y497500D02*
D03*
Y517500D02*
D03*
Y507500D02*
D03*
X650000Y425000D02*
D03*
Y415000D02*
D03*
X640000Y425000D02*
D03*
Y415000D02*
D03*
X630000Y425000D02*
D03*
Y415000D02*
D03*
X620000Y425000D02*
D03*
Y415000D02*
D03*
X610000Y425000D02*
D03*
Y415000D02*
D03*
X600000Y425000D02*
D03*
Y415000D02*
D03*
X590000Y425000D02*
D03*
Y415000D02*
D03*
X580000Y425000D02*
D03*
X410000D02*
D03*
Y415000D02*
D03*
X400000Y425000D02*
D03*
Y415000D02*
D03*
X390000Y425000D02*
D03*
Y415000D02*
D03*
X380000Y425000D02*
D03*
Y415000D02*
D03*
X370000Y425000D02*
D03*
Y415000D02*
D03*
X360000Y425000D02*
D03*
Y415000D02*
D03*
X350000Y425000D02*
D03*
Y415000D02*
D03*
X340000Y425000D02*
D03*
X647500Y625000D02*
D03*
Y615000D02*
D03*
X637500Y625000D02*
D03*
Y615000D02*
D03*
X627500Y625000D02*
D03*
Y615000D02*
D03*
X617500Y625000D02*
D03*
Y615000D02*
D03*
X607500Y625000D02*
D03*
Y615000D02*
D03*
X597500Y625000D02*
D03*
Y615000D02*
D03*
X587500Y625000D02*
D03*
Y615000D02*
D03*
X577500Y625000D02*
D03*
X410000D02*
D03*
Y615000D02*
D03*
X400000Y625000D02*
D03*
Y615000D02*
D03*
X390000Y625000D02*
D03*
Y615000D02*
D03*
X380000Y625000D02*
D03*
Y615000D02*
D03*
X370000Y625000D02*
D03*
Y615000D02*
D03*
X360000Y625000D02*
D03*
Y615000D02*
D03*
X350000Y625000D02*
D03*
Y615000D02*
D03*
X340000Y625000D02*
D03*
X597500Y492500D02*
D03*
X587500D02*
D03*
X357500D02*
D03*
X347500D02*
D03*
X595000Y692500D02*
D03*
X585000D02*
D03*
X357500D02*
D03*
X347500D02*
D03*
D17*
X227500Y402500D02*
D03*
X752500Y447500D02*
D03*
D18*
X385000Y322500D02*
D03*
X275000D02*
D03*
X687500Y322815D02*
D03*
X580000Y415000D02*
D03*
X340000D02*
D03*
X577500Y615000D02*
D03*
X340000D02*
D03*
X607500Y492500D02*
D03*
X367500D02*
D03*
X605000Y692500D02*
D03*
X367500D02*
D03*
D19*
X767500Y662700D02*
D03*
X787500Y663100D02*
D03*
X767300Y647100D02*
D03*
X787300D02*
D03*
X767300Y631500D02*
D03*
X787500Y631400D02*
D03*
X767500Y615900D02*
D03*
X787400D02*
D03*
X767500Y600200D02*
D03*
X787500D02*
D03*
X767500Y584700D02*
D03*
X787400D02*
D03*
X767300Y569000D02*
D03*
X787500Y569100D02*
D03*
X767700Y553300D02*
D03*
X787600Y553500D02*
D03*
X767600Y537900D02*
D03*
X787600D02*
D03*
X767500Y522300D02*
D03*
X787600D02*
D03*
X767600Y506700D02*
D03*
X787400D02*
D03*
X767300Y491000D02*
D03*
X787600D02*
D03*
X767600Y475500D02*
D03*
X787500D02*
D03*
X767700Y459800D02*
D03*
X787500Y459900D02*
D03*
X767400Y444300D02*
D03*
X787600D02*
D03*
X767400Y428700D02*
D03*
X787500D02*
D03*
X767700Y413100D02*
D03*
X787400D02*
D03*
X767500Y397500D02*
D03*
X787500D02*
D03*
D20*
X225000Y720000D02*
D03*
Y320000D02*
D03*
X777500D02*
D03*
Y720000D02*
D03*
D21*
X487500Y675000D02*
D03*
Y682500D02*
D03*
Y640000D02*
D03*
X482500Y565000D02*
D03*
Y587500D02*
D03*
X487500Y442500D02*
D03*
Y482500D02*
D03*
Y472500D02*
D03*
Y465000D02*
D03*
X670000Y635000D02*
D03*
X677500D02*
D03*
X670000Y680000D02*
D03*
X677500Y670000D02*
D03*
X685000Y660000D02*
D03*
Y635000D02*
D03*
X235000Y510000D02*
D03*
X240000Y505000D02*
D03*
X245000Y500000D02*
D03*
X490000Y375000D02*
D03*
Y385000D02*
D03*
X490000Y397500D02*
D03*
X490000Y365000D02*
D03*
X482500Y372500D02*
D03*
Y380000D02*
D03*
Y400000D02*
D03*
Y392500D02*
D03*
X270000Y395000D02*
D03*
X487500Y662500D02*
D03*
X570000Y695000D02*
D03*
X520000D02*
D03*
X545000D02*
D03*
X557500Y637500D02*
D03*
X320000D02*
D03*
X553750Y355000D02*
D03*
X672500Y495000D02*
D03*
X670000Y485000D02*
D03*
Y450000D02*
D03*
X677500Y485000D02*
D03*
Y460000D02*
D03*
X685000Y485000D02*
D03*
Y470000D02*
D03*
X250000Y375000D02*
D03*
Y365000D02*
D03*
X520000Y455000D02*
D03*
X505000Y477500D02*
D03*
X487500Y450000D02*
D03*
Y457500D02*
D03*
X480000Y647500D02*
D03*
Y655000D02*
D03*
X500000D02*
D03*
X505000Y677500D02*
D03*
X500000Y575000D02*
D03*
X482500Y572500D02*
D03*
Y580000D02*
D03*
X505000Y600000D02*
D03*
X482500Y605000D02*
D03*
Y595000D02*
D03*
X327500Y465000D02*
D03*
Y385000D02*
D03*
X317146Y437854D02*
D03*
X407500Y495000D02*
D03*
X382500D02*
D03*
X270000Y477500D02*
D03*
X250000Y385000D02*
D03*
X315000Y355000D02*
D03*
X340000D02*
D03*
X275000D02*
D03*
X300000D02*
D03*
X515000D02*
D03*
X580000D02*
D03*
X540000D02*
D03*
X592815Y380000D02*
D03*
X567500Y385000D02*
D03*
X646250Y495000D02*
D03*
X620000D02*
D03*
X547500D02*
D03*
X572500D02*
D03*
X522500D02*
D03*
X291250Y423750D02*
D03*
X531250D02*
D03*
X567500Y465000D02*
D03*
Y457500D02*
D03*
X556831Y438169D02*
D03*
X307500Y695000D02*
D03*
X332500D02*
D03*
X282500D02*
D03*
X293750Y623750D02*
D03*
X250000Y565000D02*
D03*
Y575000D02*
D03*
Y585000D02*
D03*
Y645000D02*
D03*
Y655000D02*
D03*
Y665000D02*
D03*
X300000Y555000D02*
D03*
X315000D02*
D03*
X275000D02*
D03*
X340000D02*
D03*
X352815Y580000D02*
D03*
X327500Y585000D02*
D03*
Y665000D02*
D03*
X407500Y695000D02*
D03*
X432500D02*
D03*
X382500D02*
D03*
X531250Y623750D02*
D03*
X552500Y555000D02*
D03*
X540000D02*
D03*
X512500D02*
D03*
X580000D02*
D03*
X565000Y585000D02*
D03*
Y665000D02*
D03*
Y657500D02*
D03*
X645000Y695000D02*
D03*
X670000D02*
D03*
X720315Y460000D02*
D03*
Y660000D02*
D03*
X470315Y460000D02*
D03*
Y660000D02*
D03*
X430000Y680000D02*
D03*
Y670000D02*
D03*
Y660000D02*
D03*
X327500Y655000D02*
D03*
X432500Y495000D02*
D03*
X430000Y450000D02*
D03*
X429665Y460000D02*
D03*
X430000Y470000D02*
D03*
Y480000D02*
D03*
X352815Y380000D02*
D03*
X332500Y495000D02*
D03*
X282500D02*
D03*
X307500D02*
D03*
X620000Y695000D02*
D03*
X590315Y580000D02*
D03*
X737500Y547500D02*
D03*
X732500Y557500D02*
D03*
X727500Y567500D02*
D03*
X250000Y465000D02*
D03*
X250000Y455000D02*
D03*
X250000Y442500D02*
D03*
X327500Y455000D02*
D03*
X267500Y597500D02*
D03*
X430000Y650000D02*
D03*
X270000Y677500D02*
D03*
X330000Y312500D02*
D03*
X360000D02*
D03*
M02*
