Field=Comment~String~Comment~100|Field=Description~String~Description~100|Field=Designator~String~Designator~100|Field=Footprint~String~Footprint~100|Field=LibRef~String~LibRef~100|Field=Quantity~Integer~Quantity~100|ReportField=Currency~<none>|ReportField=ProductionQuantity~1|ReportField=ProjectFileName~PCB_Project.PrjPcb|ReportField=ProjectFullPath~C:\Users\erik\opto-pcb\PCB_Project.PrjPcb|ReportField=Title~Bill of Materials For Project [PCB_Project.PrjPcb] (No PCB Document Selected)|ReportField=TotalQuantity~32|ReportField=ReportTime~11:48:12|ReportField=ReportDate~03.10.2014|ReportField=ReportDateTime~03.10.2014 11:48:12|ReportField=OutputName~Bill of Materials|ReportField=OutputType~BOM_PartType|ReportField=GeneratorName~BOM|ReportField=GeneratorDescription~Bill of Materials|ReportField=VariantName~None|ReportField=Address1~|ReportField=Address2~|ReportField=Address3~|ReportField=Address4~|ReportField=Application_BuildNumber~|ReportField=ApprovedBy~|ReportField=Author~|ReportField=CheckedBy~|ReportField=CompanyName~|ReportField=CurrentDate~03.10.2014|ReportField=CurrentTime~11:48:03|ReportField=Date~|ReportField=DocumentFullPathAndName~C:\Users\erik\opto-pcb\Sheet1.SchDoc|ReportField=DocumentName~Sheet1.SchDoc|ReportField=DocumentNumber~|ReportField=DrawnBy~|ReportField=Engineer~|ReportField=ImagePath~|ReportField=ModifiedDate~03.10.2014|ReportField=Organization~|ReportField=ProjectName~PCB_Project.PrjPcb|ReportField=Revision~|ReportField=Rule~|ReportField=SheetNumber~|ReportField=SheetTotal~|ReportField=Time~|ReportField=Title~|ReportField=DataSourceFileName~PCB_Project.PrjPcb|ReportField=DataSourceFullPath~C:\Users\erik\opto-pcb\PCB_Project.PrjPcb
Header 2|Header, 2-Pin|External Power Supply|HDR1X2|Header 2|1
Header 30X2|Header, 30-Pin, Dual row|Header North|HDR2X30|Header 30X2|1
Header 8X2|Header, 8-Pin, Dual row|opto-in0, opto-in00, opto-in00, opto-in1, opto-in2, opto-in3|HDR2X8|Header 8X2|6
1.8k|Resistor|R1|AXIAL-0.3|Res1|4
470|Resistor|R1|AXIAL-0.3|Res1|20
